{
  "project_info": {
    "project_number": "701254412503",
    "firebase_url": "https://meu-novo-twitter-435ab.firebaseio.com",
    "project_id": "meu-novo-twitter-435ab",
    "storage_bucket": "meu-novo-twitter-435ab.appspot.com"
  },
  "client": [
    {
      "client_info": {
        "mobilesdk_app_id": "1:701254412503:android:94fb6455cd815e20",
        "android_client_info": {
          "package_name": "br.com.feirpa.meutwitter"
        }
      },
      "oauth_client": [
        {
          "client_id": "701254412503-131ir97gcikodaidl7rla0a2l7g6t36m.apps.googleusercontent.com",
          "client_type": 1,
          "android_info": {
            "package_name": "br.com.feirpa.meutwitter",
            "certificate_hash": "cc2d61af6e1c90c05b5d011d529cf1791a8a51fc"
          }
        },
        {
          "client_id": "701254412503-a50q9stbrgk9te2arj9ihq3rndb70h11.apps.googleusercontent.com",
          "client_type": 3
        }
      ],
      "api_key": [
        {
          "current_key": "AIzaSyDdZZAKuVd9tKT9yVl0Y8vbpXeucuOMJDo"
        }
      ],
      "services": {
        "analytics_service": {
          "status": 1
        },
        "appinvite_service": {
          "status": 2,
          "other_platform_oauth_client": [
            {
              "client_id": "701254412503-a50q9stbrgk9te2arj9ihq3rndb70h11.apps.googleusercontent.com",
              "client_type": 3
            }
          ]
        },
        "ads_service": {
          "status": 2
        }
      }
    }
  ],
  "configuration_version": "1"
}